<table cellspacing="0" cellpadding="0" border="0" align="center">
<tr><td width="700"><img src="%s"></td></tr>
<tr><td width="700" style="padding: 0px">
<table cellspacing="0" cellpadding="0" border="0" style="border:7px solid #e4e4e4;border-radius:5px;" align="center" width="700">
    <tr>
        <td valign="top" align="center" style="font:normal 30px 'Open Sans','sans-serif';color:#314451; padding:20px 0;">
            Two Wheeler Engine Warranty
        </td>
    </tr>
    <tr>
        <td colspan="2" valign="top" align="left"style="font:normal 14px 'Open Sans','sans-serif';padding:10px;color:#5e5e66;border-top:1px solid #e4e4e4;border-bottom:1px solid #e4e4e4">
            Congratulations! We are pleased that you have selected Warranty product. The Warranty cover protects you against the cost of repair/replacement of components and labour in case of covered part failure. <br /><br />

            Your two wheeler comes with warranty giving you an added peace of mind and protection.<br /><br />

            We hope that you will have happy and trouble free driving. In the event, should you ever
            need to claim a Warranty, you can be rest assured, that our dedicated support team will be
            at your service to help you get back your two wheeler on the road at the earliest. <br /><br />

            Wish you a Happy and trouble free motoring!!!
        </td>
    </tr>
    <tr>
        <td colspan="2" valign="top" align="left" style="padding:20px 10px;border-bottom:1px solid #e4e4e4" width="680">
            <table cellspacing="0" cellpadding="0" border="0" width="680">
                <tr>
                    <td valign="top" width="100" style="font:normal 14px 'Open Sans','sans-serif';color:#5e5e66;">Warranty ID</td>
                    <td colspan="2" valign="top" width="10" style="color:#5e5e66;">:</td>
                    <td colspan="3" width="330" style="font:normal 14px 'Open Sans','sans-serif';color:#5e5e66;padding:3px;border:1px solid #e4e4e4;border-radius:3px; background:#eee;text-align:center;">%s</td>
                </tr>
                <tr>
                    <td height="25" colspan="7"></td>
                </tr>
                <tr>
                    <td valign="top" width="80" style="font:normal 14px 'Open Sans','sans-serif';color:#5e5e66;">Name</td>
                    <td valign="top" width="30" style="color:#5e5e66;">:</td>
                    <td valign="top" width="220" style="font:normal 14px 'Open Sans','sans-serif';color:#5e5e66;padding-right:10px;">%s</td>
                    <td valign="top" width="180" style="font:normal 14px 'Open Sans','sans-serif';color:#5e5e66;">Manufacturing Year</td>
                    <td valign="top" width="30" style="color:#5e5e66;">:</td>
                    <td valign="top" width="120" style="font:normal 14px 'Open Sans','sans-serif';color:#5e5e66;padding-right:10px;">%s</td>
                </tr>
                <tr>
                    <td height="25" colspan="7"></td>
                </tr>
                <tr>
                    <td valign="top" width="80" style="font:normal 14px 'Open Sans','sans-serif';color:#5e5e66;">City</td>
                    <td valign="top" width="30" style="color:#5e5e66;">:</td>
                    <td valign="top" width="220" style="font:normal 14px 'Open Sans','sans-serif';color:#5e5e66;padding-right:10px;">%s</td>
                    <td valign="top" width="180" style="font:normal 14px 'Open Sans','sans-serif';color:#5e5e66;">Chassis</td>
                    <td valign="top" width="30" style="color:#5e5e66;">:</td>
                    <td valign="top" width="120" style="font:normal 14px 'Open Sans','sans-serif';color:#5e5e66;padding-right:10px;">%s</td>
                </tr>
                <tr>
                    <td height="25" colspan="7"></td>
                </tr>
                <tr>
                    <td valign="top" width="80" style="font:normal 14px 'Open Sans','sans-serif';color:#5e5e66;">Pin Code</td>
                    <td valign="top" width="30" style="color:#5e5e66;">:</td>
                    <td valign="top" width="220" style="font:normal 14px 'Open Sans','sans-serif';color:#5e5e66;padding-right:10px;">%s</td>
                    <td valign="top" width="180" style="font:normal 14px 'Open Sans','sans-serif';color:#5e5e66;">Engine No</td>
                    <td valign="top" width="30" style="color:#5e5e66;">:</td>
                    <td valign="top" width="120" style="font:normal 14px 'Open Sans','sans-serif';color:#5e5e66;padding-right:10px;">%s</td>
                </tr>
                <tr>
                    <td height="25" colspan="7"></td>
                </tr>
                <tr>
                    <td valign="top" width="80" style="font:normal 14px 'Open Sans','sans-serif';color:#5e5e66;">Mobile</td>
                    <td valign="top" width="30" style="color:#5e5e66;">:</td>
                    <td valign="top" width="220" style="font:normal 14px 'Open Sans','sans-serif';color:#5e5e66;padding-right:10px;">%s</td>
                    <td valign="top" width="180" style="font:normal 14px 'Open Sans','sans-serif';color:#5e5e66;">Vehicle sale date</td>
                    <td valign="top" width="30" style="color:#5e5e66;">:</td>
                    <td valign="top" width="120" style="font:normal 14px 'Open Sans','sans-serif';color:#5e5e66;padding-right:10px;">%s</td>
                </tr>
                <tr>
                    <td height="25" colspan="7"></td>
                </tr>
                <tr>
                    <td valign="top" width="80" style="font:normal 14px 'Open Sans','sans-serif';color:#5e5e66;">Email</td>
                    <td valign="top" width="30" style="color:#5e5e66;">:</td>
                    <td valign="top" width="220" style="font:normal 14px 'Open Sans','sans-serif';color:#5e5e66;padding-right:10px;">%s</td>
                    <td valign="top" width="180" style="font:normal 14px 'Open Sans','sans-serif';color:#5e5e66;">Odometer Reading</td>
                    <td valign="top" width="30" style="color:#5e5e66;">:</td>
                    <td valign="top" width="120" style="font:normal 14px 'Open Sans','sans-serif';color:#5e5e66;padding-right:10px;">%s Kms</td>
                </tr>
                <tr>
                    <td height="25" colspan="7"></td>
                </tr>
                <tr>
                    <td valign="top" width="80" style="font:normal 14px 'Open Sans','sans-serif';color:#5e5e66;">Make</td>
                    <td valign="top" width="30" style="color:#5e5e66;">:</td>
                    <td valign="top" width="220" style="font:normal 14px 'Open Sans','sans-serif';color:#5e5e66;padding-right:10px;">%s</td>
                    <td valign="top" width="180" style="font:normal 14px 'Open Sans','sans-serif';color:#5e5e66;">First Registration Date</td>
                    <td valign="top" width="30" style="color:#5e5e66;">:</td>
                    <td valign="top" width="120" style="font:normal 14px 'Open Sans','sans-serif';color:#5e5e66;padding-right:10px;">%s</td>
                </tr>
                <tr>
                    <td height="25" colspan="7"></td>
                </tr>
                <tr>
                    <td valign="top" width="80" style="font:normal 14px 'Open Sans','sans-serif';color:#5e5e66;">Model</td>
                    <td valign="top" width="30" style="color:#5e5e66;">:</td>
                    <td valign="top" width="220" style="font:normal 14px 'Open Sans','sans-serif';color:#5e5e66;padding-right:10px;">%s</td>
                    <td valign="top" width="180" style="font:normal 14px 'Open Sans','sans-serif';color:#5e5e66;">Registration No</td>
                    <td valign="top" width="30" style="color:#5e5e66;">:</td>
                    <td valign="top" width="120" style="font:normal 14px 'Open Sans','sans-serif';color:#5e5e66;padding-right:10px;">%s</td>
                </tr>
                <tr>
                    <td height="25" colspan="7"></td>
                </tr>
                <tr>
                    <td valign="top" width="80" style="font:normal 14px 'Open Sans','sans-serif';color:#5e5e66;">Address</td>
                    <td valign="top" width="30" style="color:#5e5e66;">:</td>
                    <td colspan="4"valign="top"width="550"style="font:normal 14px 'Open Sans','sans-serif';color:#5e5e66;padding-right:10px;">%s</td>
                </tr>
            </table>
        </td>
    </tr>
    <tr>
        <td colspan="2"valign="top" style="font:normal 14px 'Open Sans','sans-serif';color:#5e5e66;padding:20px 10px;border-bottom:1px solid #e4e4e4">
            Warranty valid from <span>%s</span> upto <span>%s</span> or 7,500 Kms whichever is earlier
        </td>
    </tr>
    <tr>
        <td colspan="2" valign="top" style="font:normal 14px 'Open Sans','sans-serif';color:#5e5e66;padding:20px 10px;">
            For claims, call our executive on <b style="font:bold 14px 'Open Sans','sans-serif';">8424011936</b>
        </td>
    </tr>
    <tr><td height="140" colspan="2"></td></tr>
</table>
</td></tr>
<tr><td width="700"><img src="%s"></td></tr>
</table>
