<style type='text/css'>
.for_page_break{
background-color: #f9f9f9;
margin: 20px;
}
.check_icon li{
list-style-type: none;
background-image: url('%s/img/check-icon.png');
background-repeat: no-repeat;
background-size: 30px 30px;
font-size: 14px;
position: relative;
padding: 5px 0 25px 45px;
color: #888888;"
}
</style>
<table width="800" cellspacing="0" align="center" cellpadding="0" border="0" style="font-family: 'Open Sans', 'Helvetica Neue', Helvetica, Tahoma, Arial, sans-serif;">
    <tr style="padding:10px;">
        <td style="width:160px; padding-left:20px"><img style="width:150px;float:left;" src="%s/img/coverfox-logo.png"></td>
        <td colspan="2" style="width:240px;font-size:12px;padding:0px 5px 0 0;float:left;">
            <table>
                <tr>
                    <td width="40" style="margin-right:10px"><img style="width:28px; margin-right:10px" src="%s/img/badge-2.png"></td>
                    <td width="200">Authorised by IRDA<br> Licence : IRDA/ DB 556/ 13
                </tr>
            </table>
        </td>
        <td style="width:400px"></td>
    </tr>
    <tr style="background-color:rgba(0, 0, 0, 0.5); padding:10px;">
        <td colspan="3">
            <h1 style="color: #e2ae31;font-size: 30px;font-weight: 700;margin: 5px 0px;display: inline-block;padding: 5px 20px;"><span style="color:#ffffff;">24x7</span> Car Breakdown Service</h1>
        </td>
        <td style="text-align: right; padding-right:15px;">
            <div style="text-transform: uppercase;color: #ffffff;border: 1px dashed #ffffff;padding:5px 20px;display:inline-block;text-align:center;">
                Membership Id
                <h4 style="color: #ffffff;margin: 5px 0px;text-transform: none;">%s</h4>
            </div>
        </td>
    </tr>
    <tr style="background-color:#f0f0f0; text-align:right; padding:10px;">
        <td colspan="4" style="color: #363636;font-size: 16px;margin: 5px 0px;display: inline-block;padding: 5px 20px;">
            Valid from <span>%s</span> upto <span>%s</span>
        </td>
    </tr>
    <tr><td colspan="4" style="height:15px;"></td></tr>
    <tr>
        <td colspan="4" style="padding:10px 20px 0 20px;border-bottom:1px solid #ff6127;color:#888888;text-transform:uppercase;font-weight:700;">
            Personal Information
        </td>
    </tr>
    <tr>
        <td style="width:150px;padding:5px 0 0 50px;text-transform: uppercase;font-size: 12px;font-weight:700;color: #888888;">Name</td>
        <td colspan="2" style="width:250px;"></td>
        <td style="width:300px;padding:5px 0 0 50px;text-transform: uppercase;font-size: 12px;font-weight:700;color: #888888;">%s</td>
    </tr>
    <tr>
        <td style="width:150px;padding:5px 0 0 50px;text-transform: uppercase;font-size: 12px;font-weight:700;color: #888888;">City</td>
        <td colspan="2" style="width:250px;"></td>
        <td style="width:300px;padding:5px 0 0 50px;text-transform: uppercase;font-size: 12px;font-weight:700;color: #888888;">%s %s</td>
    </tr>
    <tr>
        <td style="width:100px;padding:5px 0 0 50px;text-transform: uppercase;font-size: 12px;font-weight:700;color: #888888;">Email</td>
        <td colspan="2" style="width:250px;"></td>
        <td style="width:300px;padding:5px 0 0 50px;font-size: 12px;font-weight:700;color: #888888;">%s</td>
    </tr>
    <tr>
        <td style="width:100px;padding:5px 0 0 50px;text-transform: uppercase;font-size: 12px;font-weight:700;color: #888888;">Contact</td>
        <td colspan="2" style="width:250px;"></td>
        <td style="width:300px;padding:5px 0 0 50px;text-transform: uppercase;font-size: 12px;font-weight:700;color: #888888;">%s</td>
    </tr>
    <tr>
        <td colspan="4" style="padding:50px 20px 0 20px;border-bottom:1px solid #ff6127;color:#888888;text-transform:uppercase;font-weight:700;">
            Vehicle Information
        </td>
    </tr>
    <tr>
        <td style="padding:5px 0 0 50px;text-transform: uppercase;font-size: 12px;font-weight:700;color: #888888;">Car Model</td>
        <td colspan="2" style="width:250px;"></td>
        <td style="width:300px;padding:5px 0 0 50px;text-transform: uppercase;font-size: 12px;font-weight:700;color: #888888;">%s %s</td>
    </tr>
    <tr>
        <td style="padding:5px 0 0 50px;text-transform: uppercase;font-size: 12px;font-weight:700;color: #888888;">Registration Number</td>
        <td colspan="2" style="width:250px;"></td>
        <td style="width:300px;padding:5px 0 0 50px;text-transform: uppercase;font-size: 12px;font-weight:700;color: #888888;">%s</td>
    </tr>
    <tr style="background-color: #ffffff;">
        <td colspan="4" style="padding:20px 15px; border-bottom: 1px dashed #eaeaea;">
            <div style="line-height: 1.6em;margin-bottom:5px;">
                <p>Your membership ID is <span style="color: #ff6127;font-size: 18px;">%s<sup>*</sup></span></p>
                <em style="color: #888888;font-size: 13px;"><sup>*</sup>The Breakdown Services are valid with a valid Insurance for your car. If your car insurance has expired, our advisors will get in touch with you to help issue a fresh insurance.
                </em>
            </div>
        </td>
    </tr>
    <tr style="background-color: #ffffff">
        <td colspan="4" style="font-size:14px;padding:0 15px;">
            <p>For claims call our toll free number <span style="font-size: 40px;color: #ff6127;">1800-425-2002</span></p>
            <p>In case of delay in revert on the above number call directly to our executive on <strong style="font-size:20px;">8424011936</strong></p>
        </td>
    </tr>
    <tr>
        <td colspan="4">
            <table cellspacing="0" cellpadding="0" border="0" width="760" class="for_page_break">
                <tr>
                    <td colspan="4">
                        <h1 style="font-size: 32px;margin:10px;font-weight:300;color:#363636;line-height: 1.4em;">Car Breakdown Services</h1>
                    </td>
                </tr>
                <tr>
                    <td>
                        <ul class="check_icon">
                            <li>Free Towing service upto 25 Kms</li>
                            <li>Free Cab facility upto 25 Kms</li>
                            <li>On spot Technical Assistance</li>
                        </ul>
                    </td>
                    <td>
                        <ul class="check_icon">
                            <li>Labour Support for Tyre Change, Alternate Battery</li>
                            <li>Instant Arrangement of Fuel, Food, Water and First Aid</li>
                            <li>Prompt Assistance for booking Air & Train tickets, Accommodation</li>
                        </ul>
                    </td>
                </tr>
                <tr>
                    <td colspan="4">
                        <div style="font-style: italic;color: #999999;font-size: 12px;padding-top: 10px;border-top: 1px dashed #eaeaea;margin-top: 10px;margin-bottom:20px;"><sup style="color: #ff2222; padding: 20px;">*</sup>Any benefit can be claimed maximum 4 times in the membership tenure</div>
                    </td>
                </tr>
                <tr style="background:#ffffff;"><td colspan="4" height="420"></td></tr>
                <tr>
                    <td colspan="4">
                        <h1 style="font-size: 32px;margin: 10px;font-weight: 300;color: #363636;line-height: 1.4em;">Frequently Asked Questions</h1>
                    </td>
                </tr>
                <tr>
                    <td colspan="4" style="padding:20px 0 0 20px;color:#787878;font-size:14px;font-weight:800;">
                        1. What is Car Breakdown Service?
                    </td>
                </tr>
                <tr>
                    <td colspan="4" style="padding:5px 5px 5px 45px;color:#888888;font-size:14px;">
                        &bull; You can never know when trouble is around the corner. With Coverfox Roadside Assistance, you get the security of knowing that help is just a phone call away in case of any roadside trouble. This Roadside Assistance program provides technically trained advisors, available to you 24 hours a day, 365 days a year, and offers a number of services to ease your concerns resulting from unforeseeable emergencies.
                    </td>
                </tr>
                <tr>
                    <td colspan="4" style="padding:20px 0 0 20px;color:#787878;font-size:14px;font-weight:800;">
                        2. which of the benefits of 24x7 breakdown service are payable?
                    </td>
                </tr>
                <tr>
                    <td colspan="4" style="padding:5px 5px 5px 45px;color:#888888;font-size:14px;">
                        &bull; labour or arrangement cost in all the benefits are free. only new part replacement are chargeable.
                    </td>
                </tr>
                <tr>
                    <td colspan="4" style="padding:20px 0 0 20px;color:#787878;font-size:14px;font-weight:800;">
                        3. How to intimate a claim of Breakdown Service?
                    </td>
                </tr>
                <tr>
                    <td colspan="4" style="padding:5px 5px 5px 45px;color:#888888;font-size:14px;">
                        &bull; To intimate any claim, just call our toll free number 1800-425-2002.
                    </td>
                </tr>
                <tr>
                    <td colspan="4" style="padding:20px 0 0 20px;color:#787878;font-size:14px;font-weight:800;">
                        4. Do I get support in Highways & remote areas under this Breakdown Service?
                    </td>
                </tr>
                <tr>
                    <td colspan="4" style="padding:5px 5px 5px 45px;color:#888888;font-size:14px;">
                        &bull; Coverfox Breakdown Service is available in every motorable road in India. Also, we provide support in every major regional languages over the call.
                    </td>
                </tr>
                <tr>
                    <td colspan="4" style="padding:20px 0 0 20px;color:#787878;font-size:14px;font-weight:800;">
                        5. How does Lost key benefit work?
                    </td>
                </tr>
                <tr>
                    <td colspan="4" style="padding:5px 5px 5px 45px;color:#888888;font-size:14px;">
                        &bull; When you lose your primary key or if it gets locked inside your Car, we can get you the second key from its place.
                    </td>
                </tr>
                <tr>
                    <td colspan="4" style="padding:20px 0 0 20px;color:#787878;font-size:14px;font-weight:800;">
                        6. How does the distance in Taxi & Towing benefits calculated?
                    </td>
                </tr>
                <tr>
                    <td colspan="4" style="padding:5px 5px 5px 45px;color:#888888;font-size:14px;">
                        &bull; The starting point for Taxi or Towing distance is considered from the Taxi's first location and Towing Garage location respectively.
                    </td>
                </tr>
                <tr>
                    <td colspan="4" style="padding:20px 0 0 20px;color:#787878;font-size:14px;font-weight:800;">
                        7. How many times can we claim under Breakdown Service?
                    </td>
                </tr>
                <tr>
                    <td colspan="4" style="padding:5px 5px 5px 45px;color:#888888;font-size:14px;">
                        &bull; Maximum 4 claim instances are allowed. Although you can take any number of benefits under one instance. We extend the benefits over 4 claim instances also, but that would be chargeable on actuals.
                    </td>
                </tr>
                <tr>
                    <td colspan="4" style="padding:20px 0 0 20px;color:#787878;font-size:14px;font-weight:800;">
                        8. What is the validity period of Breakdown Service?
                    </td>
                </tr>
                <tr>
                    <td colspan="4" style="padding:5px 5px 5px 45px;color:#888888;font-size:14px;">
                        &bull; Breakdown Service is valid for 1 Year. You can renew it with Coverfox after that
                    </td>
                </tr>
                <tr>
                    <td colspan="4" style="padding:20px 0 0 20px;color:#787878;font-size:14px;font-weight:800;">
                        9. What information is required during claim intimation?
                    </td>
                </tr>
                <tr>
                    <td colspan="4" style="padding:5px 5px 5px 45px;color:#888888;font-size:14px;">
                        &bull; You just need to confirm your member ID OR vehicle registration number. Nothing else is needed.
                    </td>
                </tr>
                <tr>
                    <td colspan="4" style="padding:20px 0 0 20px;color:#787878;font-size:14px;font-weight:800;">
                        10. Till what age of Car is Car Breakdown service available?
                    </td>
                </tr>
                <tr>
                    <td colspan="4" style="padding:5px 5px 5px 45px;color:#888888;font-size:14px;">
                        &bull; Coverfox Car Breakdown service is available for cars up to 10 years old.
                    </td>
                </tr>
            </table>
        </td>
    </tr>
    <tr style="background-color: #ffffff;border-top:1px solid #eaeaea;">
        <td colspan="4" style="padding:20px 15px 0 0;color:#999999;">
            <table cellspacing="0" cellpadding="0" border="0" width="800">
                <tr>
                    <td style="width:640px;">&copy; 2014 Coverfox Insurance Broking Pvt. Ltd. All Rights Reserved</td>
                    <td style="width:160px;text-align: right;">www.coverfox.com</td>
                </tr>
            </table>
        </td>
    </tr>

</table>
