<?xml version="1.0" encoding="UTF-8" standalone="no"?>
<svg width="26px" height="26px" viewBox="0 0 26 26" version="1.1" xmlns="http://www.w3.org/2000/svg" xmlns:xlink="http://www.w3.org/1999/xlink" xmlns:sketch="http://www.bohemiancoding.com/sketch/ns">
    <!-- Generator: Sketch 3.1 (8751) - http://www.bohemiancoding.com/sketch -->
    <title>Imported Layers 2@2x</title>
    <desc>Created with Sketch.</desc>
    <defs></defs>
    <g id="Welcome" stroke="none" stroke-width="1" fill="none" fill-rule="evenodd" sketch:type="MSPage">
        <g id="Desktop-HD" sketch:type="MSArtboardGroup" transform="translate(-145.000000, -390.000000)">
            <g id="Imported-Layers-2" sketch:type="MSLayerGroup" transform="translate(146.000000, 391.000000)">
                <path d="M23.7940876,23.5219416 C23.7894595,23.753704 23.241806,24.3331099 23.0227446,24.3380063 L0.65379714,24.3380063 C0.434735724,24.3331099 -0.112917816,23.753704 -0.117545874,23.5219416 L-0.117545874,0.672129439 C-0.112917816,0.440367058 0.434735724,-0.139038892 0.65379714,-0.143935281 L23.0227446,-0.143935281 C23.241806,-0.139038892 23.7894595,0.440367058 23.7940876,0.672129439 L23.7940876,23.5219416 L23.7940876,23.5219416 Z" id="Fill-1" stroke="#33444F" sketch:type="MSShapeGroup"></path>
                <path d="M11.8382709,3.52835596 C10.9874795,3.52835596 10.2955848,4.26036601 10.2955848,5.16048539 C10.2955848,6.06060478 10.9874795,6.79261483 11.8382709,6.79261483 C12.6890622,6.79261483 13.3809569,6.06060478 13.3809569,5.16048539 C13.3809569,4.26036601 12.6890622,3.52835596 11.8382709,3.52835596 L11.8382709,3.52835596 Z M11.8382709,5.97655011 C11.4132609,5.97655011 11.0669278,5.61013705 11.0669278,5.16048539 C11.0669278,4.71083373 11.4132609,4.34442068 11.8382709,4.34442068 C12.2632809,4.34442068 12.6096139,4.71083373 12.6096139,5.16048539 C12.6096139,5.61013705 12.2632809,5.97655011 11.8382709,5.97655011 L11.8382709,5.97655011 Z" id="Fill-2" fill="#33444F" sketch:type="MSShapeGroup"></path>
                <path d="M18.009015,16.5853915 C17.1582236,16.5853915 16.4663289,17.3174015 16.4663289,18.2175209 C16.4663289,19.1176403 17.1582236,19.8496503 18.009015,19.8496503 C18.8598063,19.8496503 19.551701,19.1176403 19.551701,18.2175209 C19.551701,17.3174015 18.8598063,16.5853915 18.009015,16.5853915 L18.009015,16.5853915 Z M18.009015,19.0335856 C17.584005,19.0335856 17.237672,18.6671726 17.237672,18.2175209 C17.237672,17.7678692 17.584005,17.4014562 18.009015,17.4014562 C18.434025,17.4014562 18.780358,17.7678692 18.780358,18.2175209 C18.780358,18.6671726 18.434025,19.0335856 18.009015,19.0335856 L18.009015,19.0335856 Z" id="Fill-3" fill="#33444F" sketch:type="MSShapeGroup"></path>
                <path d="M5.66752673,12.5050679 C4.81673539,12.5050679 4.12484071,13.2370779 4.12484071,14.1371973 C4.12484071,15.0373167 4.81673539,15.7693267 5.66752673,15.7693267 C6.51831808,15.7693267 7.21021276,15.0373167 7.21021276,14.1371973 C7.21021276,13.2370779 6.51831808,12.5050679 5.66752673,12.5050679 L5.66752673,12.5050679 Z M5.66752673,14.953262 C5.24251673,14.953262 4.89618372,14.586849 4.89618372,14.1371973 C4.89618372,13.6875456 5.24251673,13.3211326 5.66752673,13.3211326 C6.09253674,13.3211326 6.43886975,13.6875456 6.43886975,14.1371973 C6.43886975,14.586849 6.09253674,14.953262 5.66752673,14.953262 L5.66752673,14.953262 Z" id="Fill-4" fill="#33444F" sketch:type="MSShapeGroup"></path>
                <path d="M5.66752673,11.2809708 C5.88041741,11.2809708 6.05319824,11.0981723 6.05319824,10.8729384 L6.05319824,3.52835596 C6.05319824,3.30312209 5.88041741,3.1203236 5.66752673,3.1203236 C5.45463606,3.1203236 5.28185523,3.30312209 5.28185523,3.52835596 L5.28185523,10.8729384 C5.28185523,11.0981723 5.45463606,11.2809708 5.66752673,11.2809708" id="Fill-5" fill="#33444F" sketch:type="MSShapeGroup"></path>
                <path d="M5.66752673,16.9934238 C5.45463606,16.9934238 5.28185523,17.1762223 5.28185523,17.4014562 L5.28185523,19.8496503 C5.28185523,20.0748842 5.45463606,20.2576827 5.66752673,20.2576827 C5.88041741,20.2576827 6.05319824,20.0748842 6.05319824,19.8496503 L6.05319824,17.4014562 C6.05319824,17.1762223 5.88041741,16.9934238 5.66752673,16.9934238" id="Fill-6" fill="#33444F" sketch:type="MSShapeGroup"></path>
                <path d="M11.8382709,8.01671191 C11.6253802,8.01671191 11.4525993,8.19951041 11.4525993,8.42474427 L11.4525993,19.8496503 C11.4525993,20.0748842 11.6253802,20.2576827 11.8382709,20.2576827 C12.0511615,20.2576827 12.2239424,20.0748842 12.2239424,19.8496503 L12.2239424,8.42474427 C12.2239424,8.19951041 12.0511615,8.01671191 11.8382709,8.01671191" id="Fill-7" fill="#33444F" sketch:type="MSShapeGroup"></path>
                <path d="M18.009015,15.3612944 C18.2219056,15.3612944 18.3946865,15.1784959 18.3946865,14.953262 L18.3946865,3.52835596 C18.3946865,3.30312209 18.2219056,3.1203236 18.009015,3.1203236 C17.7961243,3.1203236 17.6233435,3.30312209 17.6233435,3.52835596 L17.6233435,14.953262 C17.6233435,15.1784959 17.7961243,15.3612944 18.009015,15.3612944" id="Fill-8" fill="#33444F" sketch:type="MSShapeGroup"></path>
            </g>
        </g>
    </g>
</svg>